<?xml version="1.0" encoding="UTF-8"?>
<svg xmlns="http://www.w3.org/2000/svg" xmlns:xlink="http://www.w3.org/1999/xlink" width="80pt" height="80pt" viewBox="0 0 80 80" version="1.1">
<g id="surface1">
<rect x="0" y="0" width="80" height="80" style="fill:rgb(14.901961%,0%,36.862746%);fill-opacity:1;stroke:none;"/>
<path style=" stroke:none;fill-rule:nonzero;fill:rgb(0%,31.764707%,100%);fill-opacity:1;" d="M 47.5 15 L 75 15 L 75 22.5 L 47.5 22.5 Z M 47.5 15 "/>
<path style=" stroke:none;fill-rule:nonzero;fill:rgb(0%,31.764707%,100%);fill-opacity:1;" d="M 57.5 5 L 65 5 L 65 32.5 L 57.5 32.5 Z M 57.5 5 "/>
<path style=" stroke:none;fill-rule:nonzero;fill:rgb(100%,34.117648%,0%);fill-opacity:1;" d="M 0 0 L 3.75 0 L 3.75 80 L 0 80 Z M 0 0 "/>
<path style=" stroke:none;fill-rule:nonzero;fill:rgb(100%,34.117648%,0%);fill-opacity:1;" d="M 76.25 0 L 80 0 L 80 80 L 76.25 80 Z M 76.25 0 "/>
<path style=" stroke:none;fill-rule:nonzero;fill:rgb(100%,34.117648%,0%);fill-opacity:1;" d="M 0 76.25 L 80 76.25 L 80 80 L 0 80 Z M 0 76.25 "/>
<path style=" stroke:none;fill-rule:nonzero;fill:rgb(100%,34.117648%,0%);fill-opacity:1;" d="M 0 0 L 80 0 L 80 3.75 L 0 3.75 Z M 0 0 "/>
<path style=" stroke:none;fill-rule:nonzero;fill:rgb(100%,34.117648%,0%);fill-opacity:1;" d="M 8.75 26.265625 L 21.59375 26.265625 L 21.59375 72.5 L 8.75 72.5 Z M 8.75 26.265625 "/>
<path style=" stroke:none;fill-rule:nonzero;fill:rgb(100%,34.117648%,0%);fill-opacity:1;" d="M 8.75 42.960938 L 47.277344 42.960938 L 47.277344 55.804688 L 8.75 55.804688 Z M 8.75 42.960938 "/>
<path style=" stroke:none;fill-rule:nonzero;fill:rgb(100%,34.117648%,0%);fill-opacity:1;" d="M 34.4375 26.265625 L 47.277344 26.265625 L 47.277344 72.5 L 34.4375 72.5 Z M 34.4375 26.265625 "/>
</g>
</svg>
